Project/Verilog/2/lab2/simulation/qsim/lab2.msim.vcd
$comment
	File created using the following command:
		vcd file lab2.msim.vcd -direction
$end
$date
	Tue Oct 08 01:54:06 2019
$end
$version
	ModelSim Version 10.5b
$end
$timescale
	1ps
$end

$scope module lab2_vlg_vec_tst $end
$var reg 1 ! x0 $end
$var reg 1 " x1 $end
$var reg 1 # x2 $end
$var reg 1 $ x3 $end
$var reg 1 % x4 $end
$var reg 1 & x5 $end
$var reg 1 ' x6 $end
$var reg 1 ( x7 $end
$var wire 1 ) a $end
$var wire 1 * b $end
$var wire 1 + c $end
$var wire 1 , d $end
$var wire 1 - e $end
$var wire 1 . f $end
$var wire 1 / f0 $end
$var wire 1 0 f1 $end
$var wire 1 1 f2 $end
$var wire 1 2 f3 $end
$var wire 1 3 f4 $end
$var wire 1 4 f5 $end
$var wire 1 5 f6 $end
$var wire 1 6 g $end

$scope module i1 $end
$var wire 1 7 gnd $end
$var wire 1 8 vcc $end
$var wire 1 9 unknown $end
$var tri1 1 : devclrn $end
$var tri1 1 ; devpor $end
$var tri1 1 < devoe $end
$var wire 1 = ~QUARTUS_CREATED_GND~I_combout $end
$var wire 1 > x2~input_o $end
$var wire 1 ? x0~input_o $end
$var wire 1 @ x3~input_o $end
$var wire 1 A x1~input_o $end
$var wire 1 B f0~0_combout $end
$var wire 1 C f1~0_combout $end
$var wire 1 D f2~0_combout $end
$var wire 1 E f3~0_combout $end
$var wire 1 F f4~0_combout $end
$var wire 1 G f5~0_combout $end
$var wire 1 H f6~0_combout $end
$var wire 1 I x6~input_o $end
$var wire 1 J x4~input_o $end
$var wire 1 K x7~input_o $end
$var wire 1 L a~0_combout $end
$var wire 1 M x5~input_o $end
$var wire 1 N b~0_combout $end
$var wire 1 O f~0_combout $end
$var wire 1 P d~0_combout $end
$var wire 1 Q e~0_combout $end
$var wire 1 R f~1_combout $end
$var wire 1 S g~0_combout $end
$upscope $end
$upscope $end
$enddefinitions $end
#0
$dumpvars
0!
0"
0#
0$
0%
0&
0'
0(
0)
0*
1+
0,
0-
1.
0/
00
01
02
03
04
15
06
07
18
x9
1:
1;
1<
0=
0>
0?
0@
0A
0B
0C
0D
0E
0F
0G
1H
0I
0J
0K
0L
0M
0N
1O
0P
0Q
0R
0S
$end
#100000
1!
1(
1?
1K
1R
1P
0O
1L
1G
1F
1E
1B
1/
12
13
14
1)
0+
1,
0.
#200000
1"
1'
0!
0(
1A
1I
0?
0K
0L
0H
0F
0E
1D
0B
0/
11
02
03
05
0)
#300000
1!
1(
1?
1K
1S
1F
0D
01
13
16
#400000
1#
1&
0"
0'
0!
0(
1>
1M
0A
0I
0?
0K
0P
1N
0G
1E
1B
1/
12
04
1*
0,
#500000
1!
1(
1?
1K
0S
1L
0E
1C
0B
0/
10
02
1)
06
#600000
1"
1'
0!
0(
1A
1I
0?
0K
1S
0N
0L
0F
03
0)
0*
16
#700000
1!
1(
1?
1K
0S
1Q
1N
1H
1G
1F
1E
0C
00
12
13
14
15
1*
1-
06
#800000
1$
1%
0#
0&
0"
0'
0!
0(
1@
1J
0>
0M
0A
0I
0?
0K
0Q
1O
0H
0G
0F
0E
02
03
04
05
1+
0-
#900000
1!
1(
1?
1K
1P
0O
1F
13
0+
1,
#1000000
1"
1'
0!
0(
1A
1I
0?
0K
0N
0F
1E
12
03
0*
#1100000
1!
1(
1?
1K
1S
1N
0E
1C
1B
1/
10
02
1*
16
#1200000
1#
1&
0"
0'
0!
0(
1>
1M
0A
0I
0?
0K
0S
1H
1D
0B
0/
11
15
06
#1300000
1!
1(
1?
1K
0H
1G
0D
0C
1B
1/
00
01
14
05
#1400000
1"
1'
0!
0(
1A
1I
0?
0K
0N
0G
1D
1C
0B
0/
10
11
04
0*
#1500000
1!
1(
1?
1K
1Q
1N
1E
12
1*
1-
