Project/Verilog/LED_segmentNumber_display/files/simulation/qsim/lab2_i.msim.vcd
$comment
	File created using the following command:
		vcd file lab2_i.msim.vcd -direction
$end
$date
	Tue Oct 08 03:34:18 2019
$end
$version
	ModelSim Version 10.5b
$end
$timescale
	1ps
$end

$scope module lab2_i_vlg_vec_tst $end
$var reg 1 ! x0 $end
$var reg 1 " x1 $end
$var reg 1 # x2 $end
$var reg 1 $ x3 $end
$var wire 1 % f0 $end
$var wire 1 & f1 $end
$var wire 1 ' f2 $end
$var wire 1 ( f3 $end
$var wire 1 ) f4 $end
$var wire 1 * f5 $end
$var wire 1 + f6 $end

$scope module i1 $end
$var wire 1 , gnd $end
$var wire 1 - vcc $end
$var wire 1 . unknown $end
$var tri1 1 / devclrn $end
$var tri1 1 0 devpor $end
$var tri1 1 1 devoe $end
$var wire 1 2 f0~output_o $end
$var wire 1 3 f1~output_o $end
$var wire 1 4 f2~output_o $end
$var wire 1 5 f3~output_o $end
$var wire 1 6 f4~output_o $end
$var wire 1 7 f5~output_o $end
$var wire 1 8 f6~output_o $end
$var wire 1 9 x3~input_o $end
$var wire 1 : x1~input_o $end
$var wire 1 ; x2~input_o $end
$var wire 1 < x0~input_o $end
$var wire 1 = f0~0_combout $end
$var wire 1 > f1~0_combout $end
$var wire 1 ? f2~0_combout $end
$var wire 1 @ f3~0_combout $end
$var wire 1 A f4~0_combout $end
$var wire 1 B f5~0_combout $end
$var wire 1 C f6~0_combout $end
$upscope $end
$upscope $end
$enddefinitions $end
#0
$dumpvars
0!
0"
0#
0$
0%
0&
0'
0(
0)
0*
1+
0,
1-
x.
1/
10
11
02
03
04
05
06
07
18
09
0:
0;
0<
0=
0>
0?
0@
0A
0B
1C
$end
#100000
1!
1<
1B
1A
1@
1=
12
15
16
17
1*
1)
1(
1%
#200000
1"
0!
1:
0<
0C
0A
0@
1?
0=
02
14
05
06
08
0+
0)
0(
1'
0%
#300000
1!
1<
1A
0?
04
16
1)
0'
#400000
1#
0"
0!
1;
0:
0<
0B
1@
1=
12
15
07
0*
1(
1%
#500000
1!
1<
0@
1>
0=
02
13
05
0(
1&
0%
#600000
1"
0!
1:
0<
0A
06
0)
#700000
1!
1<
1C
1B
1A
1@
0>
03
15
16
17
18
1+
1*
1)
1(
0&
#800000
1$
0#
0"
0!
19
0;
0:
0<
0C
0B
0A
0@
05
06
07
08
0+
0*
0)
0(
#900000
1!
1<
1A
16
1)
#1000000
1"
0!
1:
0<
0A
1@
15
06
0)
1(
#1100000
1!
1<
0@
1>
1=
12
13
05
0(
1&
1%
#1200000
1#
0"
0!
1;
0:
0<
1C
1?
0=
02
14
18
1+
1'
0%
#1300000
1!
1<
0C
1B
0?
0>
1=
12
03
04
17
08
0+
1*
0'
0&
1%
#1400000
1"
0!
1:
0<
0B
1?
1>
0=
02
13
14
07
0*
1'
1&
0%
#1500000
1!
1<
1@
15
1(
