Project/Verilog/LED_segmentNumber_display/lab2_ii/simulation/qsim/name.msim.vcd
$comment
	File created using the following command:
		vcd file name.msim.vcd -direction
$end
$date
	Tue Oct 08 03:41:15 2019
$end
$version
	ModelSim Version 10.5b
$end
$timescale
	1ps
$end

$scope module name_vlg_vec_tst $end
$var reg 1 ! x4 $end
$var reg 1 " x5 $end
$var reg 1 # x6 $end
$var reg 1 $ x7 $end
$var wire 1 % a $end
$var wire 1 & b $end
$var wire 1 ' c $end
$var wire 1 ( d $end
$var wire 1 ) e $end
$var wire 1 * f $end
$var wire 1 + g $end

$scope module i1 $end
$var wire 1 , gnd $end
$var wire 1 - vcc $end
$var wire 1 . unknown $end
$var tri1 1 / devclrn $end
$var tri1 1 0 devpor $end
$var tri1 1 1 devoe $end
$var wire 1 2 a~output_o $end
$var wire 1 3 b~output_o $end
$var wire 1 4 c~output_o $end
$var wire 1 5 d~output_o $end
$var wire 1 6 e~output_o $end
$var wire 1 7 f~output_o $end
$var wire 1 8 g~output_o $end
$var wire 1 9 x4~input_o $end
$var wire 1 : x6~input_o $end
$var wire 1 ; x7~input_o $end
$var wire 1 < a~0_combout $end
$var wire 1 = x5~input_o $end
$var wire 1 > b~0_combout $end
$var wire 1 ? f~0_combout $end
$var wire 1 @ d~0_combout $end
$var wire 1 A e~0_combout $end
$var wire 1 B f~1_combout $end
$var wire 1 C g~0_combout $end
$upscope $end
$upscope $end
$enddefinitions $end
#0
$dumpvars
0!
0"
0#
0$
0%
0&
1'
0(
0)
1*
0+
0,
1-
x.
1/
10
11
02
03
14
05
06
17
08
09
0:
0;
0<
0=
0>
1?
0@
0A
0B
0C
$end
#100000
1$
1;
1B
1@
0?
1<
12
04
15
07
0*
1(
0'
1%
#200000
1#
0$
1:
0;
0<
02
0%
#300000
1$
1;
1C
18
1+
#400000
1"
0#
0$
1=
0:
0;
0@
1>
13
05
0(
1&
#500000
1$
1;
0C
1<
12
08
0+
1%
#600000
1#
0$
1:
0;
1C
0>
0<
02
03
18
1+
0&
0%
#700000
1$
1;
0C
1A
1>
13
16
08
0+
1)
1&
#800000
1!
0"
0#
0$
19
0=
0:
0;
0A
1?
14
06
0)
1'
#900000
1$
1;
1@
0?
04
15
1(
0'
#1000000
1#
0$
1:
0;
0>
03
0&
#1100000
1$
1;
1C
1>
13
18
1+
1&
#1200000
1"
0#
0$
1=
0:
0;
0C
08
0+
#1300000
1$
1;
#1400000
1#
0$
1:
0;
0>
03
0&
#1500000
1$
1;
1A
1>
13
16
1)
1&
